[
{
  "model": "access.user",
  "pk": 1,
  "fields": {
    "password": "pbkdf2_sha256$30000$sW3mNzgZI6iM$cxMOpS9YklfrfOJrFraUZWhuulfF6YZjbzA4FGK/C2c=",
    "last_login": null,
    "first_name": "Testy",
    "last_name": "Admin",
    "email": "aa@aa.aa",
    "email_confirmed": true,
    "is_staff": true,
    "is_active": true,
    "date_joined": "2016-03-10T16:48:18.969Z",
    "client_salt": "IeCnYeq7lYTBKwp7SN6NBQ==",
    "public_key": "Koc+zt18UoasJYUoXicZ7aDk5MFvyKrblNMaIS9HCWc=",
    "private_key": "OThMBdLBK2vLG7wgUo3zlJgCyFikr4SGNCiodZaG0LxQart/4IrTGQOvxyenUKafiA8CAjc2DD7pfnzhoaDfmbaTiiUJjgR8dM3NCiNe5JKiGZX6i4ERIw=="
  }
},
{
  "model": "access.user",
  "pk": 2,
  "fields": {
    "password": "pbkdf2_sha256$30000$1jBSCJJLyedD$ss1pPTx5EmNobk5leEPP8aXh7ymJdrzztYByFrqwF+4=",
    "last_login": null,
    "first_name": "The",
    "last_name": "not admin",
    "email": "noadmin@aa.aa",
    "email_confirmed": true,
    "is_staff": false,
    "is_active": true,
    "date_joined": "2016-03-10T16:49:01.365Z",
    "client_salt": "wvXtvJNXt0wmL4qdsjf4fw==",
    "public_key": "QWle2GHFo88DrAoA6lYmFw8549mMrgbpDDVqEA2HY3g=",
    "private_key": "F28Bz2U8Uk3Wa/0zdM/YdNZ4rfxr8eoc2kt6UVqzwUbC2Qr/6oiMaqVM8nxFWgCJkwvZwZagJRm1qnKXDwbygIQ949PrPqvmo1qQ3PUlYYr5+GyTuIfadQ=="
  }
},
{
  "model": "access.user",
  "pk": 3,
  "fields": {
    "password": "pbkdf2_sha256$30000$bobZsG9ekuCZ$CJa4h6SNONEifED71m9qtVSxCcUNn4ykQatXA//+6rM=",
    "last_login": null,
    "first_name": "Testy",
    "last_name": "McTest",
    "email": "another@example.com",
    "email_confirmed": true,
    "is_staff": false,
    "is_active": true,
    "date_joined": "2016-03-10T16:49:21.318Z",
    "client_salt": "IdKObiEWrfk6huMbDfsgrQ==",
    "public_key": "DoyQlr7AyqVFowI/18789SKv7bfOFyxwYX/jELs5imQ=",
    "private_key": "xFJxkm28gqr51YOcmgXRAV8k6EMG2tHc+SqtKHeCbHMFG3rvMPm8EKoK7cTK2fYhlYQmE7KzY2Efu+3r2CbOse8TSV2YBeuX9mdmhUOLGwvQHJk59BFb3Q=="
  }
},
{
  "model": "access.user",
  "pk": 4,
  "fields": {
    "password": "pbkdf2_sha256$30000$1jBSCJJLyedD$ss1pPTx5EmNobk5leEPP8aXh7ymJdrzztYByFrqwF+4=",
    "last_login": null,
    "first_name": "email",
    "last_name": "not confirmed",
    "email": "notconfirmed@aa.aa",
    "email_confirmed": false,
    "is_staff": false,
    "is_active": true,
    "date_joined": "2016-03-10T16:49:01.365Z",
    "client_salt": "wvXtvJNXt0wmL4qdsjf4fw==",
    "public_key": "QWle2GHFo88DrAoA6lYmFw8549mMrgbpDDVqEA2HY3g=",
    "private_key": "F28Bz2U8Uk3Wa/0zdM/YdNZ4rfxr8eoc2kt6UVqzwUbC2Qr/6oiMaqVM8nxFWgCJkwvZwZagJRm1qnKXDwbygIQ949PrPqvmo1qQ3PUlYYr5+GyTuIfadQ=="
  }
}
]
